testbenches/processing_element_tb2.vcd
$date
	Thu Dec 01 16:14:28 2022
$end
$version
	Icarus Verilog
$end
$timescale
	1ps
$end
$scope module processing_element_tb $end
$var reg 1 ! clk $end
$upscope $end
$scope module processing_element_tb $end
$var reg 1 " reset_n $end
$upscope $end
$scope module processing_element_tb $end
$var reg 2 # control [1:0] $end
$upscope $end
$scope module processing_element_tb $end
$var reg 8 $ a_in [7:0] $end
$upscope $end
$scope module processing_element_tb $end
$var reg 32 % d_in [31:0] $end
$upscope $end
$scope module processing_element_tb $end
$var wire 8 & a_out [7:0] $end
$upscope $end
$scope module processing_element_tb $end
$var wire 32 ' d_out [31:0] $end
$upscope $end
$scope module processing_element_tb $end
$var wire 8 ( a_out2 [7:0] $end
$upscope $end
$scope module processing_element_tb $end
$var wire 32 ) d_out2 [31:0] $end
$upscope $end
$enddefinitions $end
$comment Show the parameter values. $end
$dumpall
$end
#0
$dumpvars
bx )
bx (
bx '
bx &
bx %
bx $
bx #
1"
0!
$end
#5000000
b0 '
b0 &
b0 )
b0 (
0"
1!
#10000000
b0 #
1"
0!
#15000000
1!
#20000000
0!
b11 %
b1 #
#25000000
b11 '
1!
#30000000
0!
b100 %
#35000000
b11 )
b100 '
1!
#40000000
0!
b101 %
#45000000
b101 '
b100 )
1!
#50000000
0!
b10 $
b100 %
b10 #
#55000000
b101 )
b1110 '
b10 &
1!
#60000000
0!
#65000000
b11101 )
b11 (
1!
