tb_systolic_array_ws.vcd
$date
	Mon Sep 05 14:00:55 2022
$end
$version
	Icarus Verilog
$end
$timescale
	1s
$end
$scope module tb_systolic_array_ws $end
$scope module sa $end
$var wire 32 ! a_in_vec [31:0] $end
$var wire 1 " act_fifo_enable $end
$var wire 1 # arr_enable $end
$var wire 1 $ clk $end
$var wire 1 % enable $end
$var wire 1 & mode $end
$var wire 1 ' pe_mode $end
$var wire 1 ( ps_fifo_enable $end
$var wire 1 ) reset_n $end
$var wire 32 * w_in_vec [31:0] $end
$var wire 128 + ps_out_vec [127:0] $end
$var parameter 32 , ARRHEIGHT $end
$var parameter 32 - ARRWIDTH $end
$var parameter 1 . MODE_PS $end
$var parameter 1 / MODE_WL $end
$var parameter 32 0 WORDWIDTH $end
$var reg 32 1 global_ps_in [31:0] $end
$scope begin genblk1[0] $end
$var parameter 2 2 w_in_idx $end
$upscope $end
$scope begin genblk1[1] $end
$var parameter 2 3 w_in_idx $end
$upscope $end
$scope begin genblk1[2] $end
$var parameter 3 4 w_in_idx $end
$upscope $end
$scope begin genblk1[3] $end
$var parameter 3 5 w_in_idx $end
$upscope $end
$scope begin genblk10[0] $end
$var parameter 2 6 cidx $end
$scope begin genblk1[1] $end
$var parameter 2 7 ridx $end
$upscope $end
$scope begin genblk1[2] $end
$var parameter 3 8 ridx $end
$upscope $end
$scope begin genblk1[3] $end
$var parameter 3 9 ridx $end
$upscope $end
$upscope $end
$scope begin genblk10[1] $end
$var parameter 2 : cidx $end
$scope begin genblk1[1] $end
$var parameter 2 ; ridx $end
$upscope $end
$scope begin genblk1[2] $end
$var parameter 3 < ridx $end
$upscope $end
$scope begin genblk1[3] $end
$var parameter 3 = ridx $end
$upscope $end
$upscope $end
$scope begin genblk10[2] $end
$var parameter 3 > cidx $end
$scope begin genblk1[1] $end
$var parameter 2 ? ridx $end
$upscope $end
$scope begin genblk1[2] $end
$var parameter 3 @ ridx $end
$upscope $end
$scope begin genblk1[3] $end
$var parameter 3 A ridx $end
$upscope $end
$upscope $end
$scope begin genblk10[3] $end
$var parameter 3 B cidx $end
$scope begin genblk1[1] $end
$var parameter 2 C ridx $end
$upscope $end
$scope begin genblk1[2] $end
$var parameter 3 D ridx $end
$upscope $end
$scope begin genblk1[3] $end
$var parameter 3 E ridx $end
$upscope $end
$upscope $end
$scope begin genblk2[0] $end
$var parameter 2 F a_in_idx $end
$upscope $end
$scope begin genblk2[1] $end
$var parameter 2 G a_in_idx $end
$upscope $end
$scope begin genblk2[2] $end
$var parameter 3 H a_in_idx $end
$upscope $end
$scope begin genblk2[3] $end
$var parameter 3 I a_in_idx $end
$upscope $end
$scope begin genblk3[0] $end
$var parameter 2 J ps_out_idx $end
$upscope $end
$scope begin genblk3[1] $end
$var parameter 2 K ps_out_idx $end
$upscope $end
$scope begin genblk3[2] $end
$var parameter 3 L ps_out_idx $end
$upscope $end
$scope begin genblk3[3] $end
$var parameter 3 M ps_out_idx $end
$upscope $end
$scope begin genblk4[0] $end
$var parameter 2 N act_fifo_idx $end
$scope module act_fifo $end
$var wire 1 $ clk $end
$var wire 1 " enable $end
$var wire 8 O in [7:0] $end
$var wire 1 ) reset_n $end
$var wire 8 P out [7:0] $end
$var parameter 32 Q SIZ $end
$var parameter 32 R WORDWIDTH $end
$var reg 16 S container [15:0] $end
$upscope $end
$upscope $end
$scope begin genblk4[1] $end
$var parameter 2 T act_fifo_idx $end
$scope module act_fifo $end
$var wire 1 $ clk $end
$var wire 1 " enable $end
$var wire 8 U in [7:0] $end
$var wire 1 ) reset_n $end
$var wire 8 V out [7:0] $end
$var parameter 32 W SIZ $end
$var parameter 32 X WORDWIDTH $end
$var reg 24 Y container [23:0] $end
$upscope $end
$upscope $end
$scope begin genblk4[2] $end
$var parameter 3 Z act_fifo_idx $end
$scope module act_fifo $end
$var wire 1 $ clk $end
$var wire 1 " enable $end
$var wire 8 [ in [7:0] $end
$var wire 1 ) reset_n $end
$var wire 8 \ out [7:0] $end
$var parameter 32 ] SIZ $end
$var parameter 32 ^ WORDWIDTH $end
$var reg 32 _ container [31:0] $end
$upscope $end
$upscope $end
$scope begin genblk4[3] $end
$var parameter 3 ` act_fifo_idx $end
$scope module act_fifo $end
$var wire 1 $ clk $end
$var wire 1 " enable $end
$var wire 8 a in [7:0] $end
$var wire 1 ) reset_n $end
$var wire 8 b out [7:0] $end
$var parameter 32 c SIZ $end
$var parameter 32 d WORDWIDTH $end
$var reg 40 e container [39:0] $end
$upscope $end
$upscope $end
$scope begin genblk5[0] $end
$var parameter 2 f ps_fifo_idx $end
$scope module ps_fifo $end
$var wire 1 $ clk $end
$var wire 1 ( enable $end
$var wire 1 ) reset_n $end
$var wire 32 g out [31:0] $end
$var wire 32 h in [31:0] $end
$var parameter 32 i SIZ $end
$var parameter 64 j WORDWIDTH $end
$var reg 160 k container [159:0] $end
$upscope $end
$upscope $end
$scope begin genblk5[1] $end
$var parameter 2 l ps_fifo_idx $end
$scope module ps_fifo $end
$var wire 1 $ clk $end
$var wire 1 ( enable $end
$var wire 1 ) reset_n $end
$var wire 32 m out [31:0] $end
$var wire 32 n in [31:0] $end
$var parameter 32 o SIZ $end
$var parameter 64 p WORDWIDTH $end
$var reg 128 q container [127:0] $end
$upscope $end
$upscope $end
$scope begin genblk5[2] $end
$var parameter 3 r ps_fifo_idx $end
$scope module ps_fifo $end
$var wire 1 $ clk $end
$var wire 1 ( enable $end
$var wire 1 ) reset_n $end
$var wire 32 s out [31:0] $end
$var wire 32 t in [31:0] $end
$var parameter 32 u SIZ $end
$var parameter 64 v WORDWIDTH $end
$var reg 96 w container [95:0] $end
$upscope $end
$upscope $end
$scope begin genblk5[3] $end
$var parameter 3 x ps_fifo_idx $end
$scope module ps_fifo $end
$var wire 1 $ clk $end
$var wire 1 ( enable $end
$var wire 1 ) reset_n $end
$var wire 32 y out [31:0] $end
$var wire 32 z in [31:0] $end
$var parameter 32 { SIZ $end
$var parameter 64 | WORDWIDTH $end
$var reg 64 } container [63:0] $end
$upscope $end
$upscope $end
$scope begin genblk6[0] $end
$var parameter 2 ~ pe_idx $end
$scope module pe_arr $end
$var wire 8 !" a_in [7:0] $end
$var wire 1 $ clk $end
$var wire 1 "" enable_in $end
$var wire 1 ' mode $end
$var wire 32 #" ps_out [31:0] $end
$var wire 1 ) reset_n $end
$var wire 8 $" w_out [7:0] $end
$var wire 8 %" w_in [7:0] $end
$var wire 32 &" ps_in [31:0] $end
$var wire 1 '" enable_out $end
$var wire 8 (" a_out [7:0] $end
$var parameter 1 )" MODE_PS $end
$var parameter 1 *" MODE_WL $end
$var parameter 32 +" WORDWIDTH $end
$var reg 8 ," activation [7:0] $end
$var reg 1 '" enable_out_reg $end
$var reg 32 -" partial_sum [31:0] $end
$var reg 16 ." weight [15:0] $end
$scope begin PSUM_CALC $end
$upscope $end
$upscope $end
$upscope $end
$scope begin genblk6[1] $end
$var parameter 2 /" pe_idx $end
$scope module pe_arr $end
$var wire 1 $ clk $end
$var wire 1 ' mode $end
$var wire 32 0" ps_out [31:0] $end
$var wire 1 ) reset_n $end
$var wire 8 1" w_out [7:0] $end
$var wire 8 2" w_in [7:0] $end
$var wire 32 3" ps_in [31:0] $end
$var wire 1 4" enable_out $end
$var wire 1 5" enable_in $end
$var wire 8 6" a_out [7:0] $end
$var wire 8 7" a_in [7:0] $end
$var parameter 1 8" MODE_PS $end
$var parameter 1 9" MODE_WL $end
$var parameter 32 :" WORDWIDTH $end
$var reg 8 ;" activation [7:0] $end
$var reg 1 4" enable_out_reg $end
$var reg 32 <" partial_sum [31:0] $end
$var reg 16 =" weight [15:0] $end
$scope begin PSUM_CALC $end
$upscope $end
$upscope $end
$upscope $end
$scope begin genblk6[2] $end
$var parameter 3 >" pe_idx $end
$scope module pe_arr $end
$var wire 1 $ clk $end
$var wire 1 ' mode $end
$var wire 32 ?" ps_out [31:0] $end
$var wire 1 ) reset_n $end
$var wire 8 @" w_out [7:0] $end
$var wire 8 A" w_in [7:0] $end
$var wire 32 B" ps_in [31:0] $end
$var wire 1 C" enable_out $end
$var wire 1 D" enable_in $end
$var wire 8 E" a_out [7:0] $end
$var wire 8 F" a_in [7:0] $end
$var parameter 1 G" MODE_PS $end
$var parameter 1 H" MODE_WL $end
$var parameter 32 I" WORDWIDTH $end
$var reg 8 J" activation [7:0] $end
$var reg 1 C" enable_out_reg $end
$var reg 32 K" partial_sum [31:0] $end
$var reg 16 L" weight [15:0] $end
$scope begin PSUM_CALC $end
$upscope $end
$upscope $end
$upscope $end
$scope begin genblk6[3] $end
$var parameter 3 M" pe_idx $end
$scope module pe_arr $end
$var wire 8 N" a_out [7:0] $end
$var wire 1 $ clk $end
$var wire 1 O" enable_out $end
$var wire 1 ' mode $end
$var wire 32 P" ps_out [31:0] $end
$var wire 1 ) reset_n $end
$var wire 8 Q" w_out [7:0] $end
$var wire 8 R" w_in [7:0] $end
$var wire 32 S" ps_in [31:0] $end
$var wire 1 T" enable_in $end
$var wire 8 U" a_in [7:0] $end
$var parameter 1 V" MODE_PS $end
$var parameter 1 W" MODE_WL $end
$var parameter 32 X" WORDWIDTH $end
$var reg 8 Y" activation [7:0] $end
$var reg 1 Z" enable_out_reg $end
$var reg 32 [" partial_sum [31:0] $end
$var reg 16 \" weight [15:0] $end
$scope begin PSUM_CALC $end
$upscope $end
$upscope $end
$upscope $end
$scope begin genblk6[4] $end
$var parameter 4 ]" pe_idx $end
$scope module pe_arr $end
$var wire 1 $ clk $end
$var wire 1 ' mode $end
$var wire 32 ^" ps_in [31:0] $end
$var wire 32 _" ps_out [31:0] $end
$var wire 1 ) reset_n $end
$var wire 8 `" w_in [7:0] $end
$var wire 8 a" w_out [7:0] $end
$var wire 1 b" enable_out $end
$var wire 1 c" enable_in $end
$var wire 8 d" a_out [7:0] $end
$var wire 8 e" a_in [7:0] $end
$var parameter 1 f" MODE_PS $end
$var parameter 1 g" MODE_WL $end
$var parameter 32 h" WORDWIDTH $end
$var reg 8 i" activation [7:0] $end
$var reg 1 b" enable_out_reg $end
$var reg 32 j" partial_sum [31:0] $end
$var reg 16 k" weight [15:0] $end
$scope begin PSUM_CALC $end
$upscope $end
$upscope $end
$upscope $end
$scope begin genblk6[5] $end
$var parameter 4 l" pe_idx $end
$scope module pe_arr $end
$var wire 1 $ clk $end
$var wire 1 ' mode $end
$var wire 32 m" ps_in [31:0] $end
$var wire 32 n" ps_out [31:0] $end
$var wire 1 ) reset_n $end
$var wire 8 o" w_in [7:0] $end
$var wire 8 p" w_out [7:0] $end
$var wire 1 q" enable_out $end
$var wire 1 r" enable_in $end
$var wire 8 s" a_out [7:0] $end
$var wire 8 t" a_in [7:0] $end
$var parameter 1 u" MODE_PS $end
$var parameter 1 v" MODE_WL $end
$var parameter 32 w" WORDWIDTH $end
$var reg 8 x" activation [7:0] $end
$var reg 1 q" enable_out_reg $end
$var reg 32 y" partial_sum [31:0] $end
$var reg 16 z" weight [15:0] $end
$scope begin PSUM_CALC $end
$upscope $end
$upscope $end
$upscope $end
$scope begin genblk6[6] $end
$var parameter 4 {" pe_idx $end
$scope module pe_arr $end
$var wire 1 $ clk $end
$var wire 1 ' mode $end
$var wire 32 |" ps_in [31:0] $end
$var wire 32 }" ps_out [31:0] $end
$var wire 1 ) reset_n $end
$var wire 8 ~" w_in [7:0] $end
$var wire 8 !# w_out [7:0] $end
$var wire 1 "# enable_out $end
$var wire 1 ## enable_in $end
$var wire 8 $# a_out [7:0] $end
$var wire 8 %# a_in [7:0] $end
$var parameter 1 &# MODE_PS $end
$var parameter 1 '# MODE_WL $end
$var parameter 32 (# WORDWIDTH $end
$var reg 8 )# activation [7:0] $end
$var reg 1 "# enable_out_reg $end
$var reg 32 *# partial_sum [31:0] $end
$var reg 16 +# weight [15:0] $end
$scope begin PSUM_CALC $end
$upscope $end
$upscope $end
$upscope $end
$scope begin genblk6[7] $end
$var parameter 4 ,# pe_idx $end
$scope module pe_arr $end
$var wire 8 -# a_out [7:0] $end
$var wire 1 $ clk $end
$var wire 1 .# enable_out $end
$var wire 1 ' mode $end
$var wire 32 /# ps_in [31:0] $end
$var wire 32 0# ps_out [31:0] $end
$var wire 1 ) reset_n $end
$var wire 8 1# w_in [7:0] $end
$var wire 8 2# w_out [7:0] $end
$var wire 1 3# enable_in $end
$var wire 8 4# a_in [7:0] $end
$var parameter 1 5# MODE_PS $end
$var parameter 1 6# MODE_WL $end
$var parameter 32 7# WORDWIDTH $end
$var reg 8 8# activation [7:0] $end
$var reg 1 9# enable_out_reg $end
$var reg 32 :# partial_sum [31:0] $end
$var reg 16 ;# weight [15:0] $end
$scope begin PSUM_CALC $end
$upscope $end
$upscope $end
$upscope $end
$scope begin genblk6[8] $end
$var parameter 5 <# pe_idx $end
$scope module pe_arr $end
$var wire 1 $ clk $end
$var wire 1 ' mode $end
$var wire 32 =# ps_in [31:0] $end
$var wire 32 ># ps_out [31:0] $end
$var wire 1 ) reset_n $end
$var wire 8 ?# w_in [7:0] $end
$var wire 8 @# w_out [7:0] $end
$var wire 1 A# enable_out $end
$var wire 1 B# enable_in $end
$var wire 8 C# a_out [7:0] $end
$var wire 8 D# a_in [7:0] $end
$var parameter 1 E# MODE_PS $end
$var parameter 1 F# MODE_WL $end
$var parameter 32 G# WORDWIDTH $end
$var reg 8 H# activation [7:0] $end
$var reg 1 A# enable_out_reg $end
$var reg 32 I# partial_sum [31:0] $end
$var reg 16 J# weight [15:0] $end
$scope begin PSUM_CALC $end
$upscope $end
$upscope $end
$upscope $end
$scope begin genblk6[9] $end
$var parameter 5 K# pe_idx $end
$scope module pe_arr $end
$var wire 1 $ clk $end
$var wire 1 ' mode $end
$var wire 32 L# ps_in [31:0] $end
$var wire 32 M# ps_out [31:0] $end
$var wire 1 ) reset_n $end
$var wire 8 N# w_in [7:0] $end
$var wire 8 O# w_out [7:0] $end
$var wire 1 P# enable_out $end
$var wire 1 Q# enable_in $end
$var wire 8 R# a_out [7:0] $end
$var wire 8 S# a_in [7:0] $end
$var parameter 1 T# MODE_PS $end
$var parameter 1 U# MODE_WL $end
$var parameter 32 V# WORDWIDTH $end
$var reg 8 W# activation [7:0] $end
$var reg 1 P# enable_out_reg $end
$var reg 32 X# partial_sum [31:0] $end
$var reg 16 Y# weight [15:0] $end
$scope begin PSUM_CALC $end
$upscope $end
$upscope $end
$upscope $end
$scope begin genblk6[10] $end
$var parameter 5 Z# pe_idx $end
$scope module pe_arr $end
$var wire 1 $ clk $end
$var wire 1 ' mode $end
$var wire 32 [# ps_in [31:0] $end
$var wire 32 \# ps_out [31:0] $end
$var wire 1 ) reset_n $end
$var wire 8 ]# w_in [7:0] $end
$var wire 8 ^# w_out [7:0] $end
$var wire 1 _# enable_out $end
$var wire 1 `# enable_in $end
$var wire 8 a# a_out [7:0] $end
$var wire 8 b# a_in [7:0] $end
$var parameter 1 c# MODE_PS $end
$var parameter 1 d# MODE_WL $end
$var parameter 32 e# WORDWIDTH $end
$var reg 8 f# activation [7:0] $end
$var reg 1 _# enable_out_reg $end
$var reg 32 g# partial_sum [31:0] $end
$var reg 16 h# weight [15:0] $end
$scope begin PSUM_CALC $end
$upscope $end
$upscope $end
$upscope $end
$scope begin genblk6[11] $end
$var parameter 5 i# pe_idx $end
$scope module pe_arr $end
$var wire 8 j# a_out [7:0] $end
$var wire 1 $ clk $end
$var wire 1 k# enable_out $end
$var wire 1 ' mode $end
$var wire 32 l# ps_in [31:0] $end
$var wire 32 m# ps_out [31:0] $end
$var wire 1 ) reset_n $end
$var wire 8 n# w_in [7:0] $end
$var wire 8 o# w_out [7:0] $end
$var wire 1 p# enable_in $end
$var wire 8 q# a_in [7:0] $end
$var parameter 1 r# MODE_PS $end
$var parameter 1 s# MODE_WL $end
$var parameter 32 t# WORDWIDTH $end
$var reg 8 u# activation [7:0] $end
$var reg 1 v# enable_out_reg $end
$var reg 32 w# partial_sum [31:0] $end
$var reg 16 x# weight [15:0] $end
$scope begin PSUM_CALC $end
$upscope $end
$upscope $end
$upscope $end
$scope begin genblk6[12] $end
$var parameter 5 y# pe_idx $end
$scope module pe_arr $end
$var wire 1 $ clk $end
$var wire 1 ' mode $end
$var wire 32 z# ps_in [31:0] $end
$var wire 32 {# ps_out [31:0] $end
$var wire 1 ) reset_n $end
$var wire 8 |# w_in [7:0] $end
$var wire 8 }# w_out [7:0] $end
$var wire 1 ~# enable_out $end
$var wire 1 !$ enable_in $end
$var wire 8 "$ a_out [7:0] $end
$var wire 8 #$ a_in [7:0] $end
$var parameter 1 $$ MODE_PS $end
$var parameter 1 %$ MODE_WL $end
$var parameter 32 &$ WORDWIDTH $end
$var reg 8 '$ activation [7:0] $end
$var reg 1 ~# enable_out_reg $end
$var reg 32 ($ partial_sum [31:0] $end
$var reg 16 )$ weight [15:0] $end
$scope begin PSUM_CALC $end
$upscope $end
$upscope $end
$upscope $end
$scope begin genblk6[13] $end
$var parameter 5 *$ pe_idx $end
$scope module pe_arr $end
$var wire 1 $ clk $end
$var wire 1 ' mode $end
$var wire 32 +$ ps_in [31:0] $end
$var wire 32 ,$ ps_out [31:0] $end
$var wire 1 ) reset_n $end
$var wire 8 -$ w_in [7:0] $end
$var wire 8 .$ w_out [7:0] $end
$var wire 1 /$ enable_out $end
$var wire 1 0$ enable_in $end
$var wire 8 1$ a_out [7:0] $end
$var wire 8 2$ a_in [7:0] $end
$var parameter 1 3$ MODE_PS $end
$var parameter 1 4$ MODE_WL $end
$var parameter 32 5$ WORDWIDTH $end
$var reg 8 6$ activation [7:0] $end
$var reg 1 /$ enable_out_reg $end
$var reg 32 7$ partial_sum [31:0] $end
$var reg 16 8$ weight [15:0] $end
$scope begin PSUM_CALC $end
$upscope $end
$upscope $end
$upscope $end
$scope begin genblk6[14] $end
$var parameter 5 9$ pe_idx $end
$scope module pe_arr $end
$var wire 1 $ clk $end
$var wire 1 ' mode $end
$var wire 32 :$ ps_in [31:0] $end
$var wire 32 ;$ ps_out [31:0] $end
$var wire 1 ) reset_n $end
$var wire 8 <$ w_in [7:0] $end
$var wire 8 =$ w_out [7:0] $end
$var wire 1 >$ enable_out $end
$var wire 1 ?$ enable_in $end
$var wire 8 @$ a_out [7:0] $end
$var wire 8 A$ a_in [7:0] $end
$var parameter 1 B$ MODE_PS $end
$var parameter 1 C$ MODE_WL $end
$var parameter 32 D$ WORDWIDTH $end
$var reg 8 E$ activation [7:0] $end
$var reg 1 >$ enable_out_reg $end
$var reg 32 F$ partial_sum [31:0] $end
$var reg 16 G$ weight [15:0] $end
$scope begin PSUM_CALC $end
$upscope $end
$upscope $end
$upscope $end
$scope begin genblk6[15] $end
$var parameter 5 H$ pe_idx $end
$scope module pe_arr $end
$var wire 8 I$ a_out [7:0] $end
$var wire 1 $ clk $end
$var wire 1 J$ enable_out $end
$var wire 1 ' mode $end
$var wire 32 K$ ps_in [31:0] $end
$var wire 32 L$ ps_out [31:0] $end
$var wire 1 ) reset_n $end
$var wire 8 M$ w_in [7:0] $end
$var wire 8 N$ w_out [7:0] $end
$var wire 1 O$ enable_in $end
$var wire 8 P$ a_in [7:0] $end
$var parameter 1 Q$ MODE_PS $end
$var parameter 1 R$ MODE_WL $end
$var parameter 32 S$ WORDWIDTH $end
$var reg 8 T$ activation [7:0] $end
$var reg 1 U$ enable_out_reg $end
$var reg 32 V$ partial_sum [31:0] $end
$var reg 16 W$ weight [15:0] $end
$scope begin PSUM_CALC $end
$upscope $end
$upscope $end
$upscope $end
$scope begin genblk7[1] $end
$var parameter 2 X$ ridx $end
$upscope $end
$scope begin genblk7[2] $end
$var parameter 3 Y$ ridx $end
$upscope $end
$scope begin genblk7[3] $end
$var parameter 3 Z$ ridx $end
$upscope $end
$scope begin genblk8[0] $end
$var parameter 2 [$ cidx $end
$upscope $end
$scope begin genblk8[1] $end
$var parameter 2 \$ cidx $end
$upscope $end
$scope begin genblk8[2] $end
$var parameter 3 ]$ cidx $end
$upscope $end
$scope begin genblk8[3] $end
$var parameter 3 ^$ cidx $end
$upscope $end
$scope begin genblk9[1] $end
$var parameter 2 _$ cidx $end
$scope begin genblk1[0] $end
$var parameter 2 `$ ridx $end
$upscope $end
$scope begin genblk1[1] $end
$var parameter 2 a$ ridx $end
$upscope $end
$scope begin genblk1[2] $end
$var parameter 3 b$ ridx $end
$upscope $end
$scope begin genblk1[3] $end
$var parameter 3 c$ ridx $end
$upscope $end
$upscope $end
$scope begin genblk9[2] $end
$var parameter 3 d$ cidx $end
$scope begin genblk1[0] $end
$var parameter 2 e$ ridx $end
$upscope $end
$scope begin genblk1[1] $end
$var parameter 2 f$ ridx $end
$upscope $end
$scope begin genblk1[2] $end
$var parameter 3 g$ ridx $end
$upscope $end
$scope begin genblk1[3] $end
$var parameter 3 h$ ridx $end
$upscope $end
$upscope $end
$scope begin genblk9[3] $end
$var parameter 3 i$ cidx $end
$scope begin genblk1[0] $end
$var parameter 2 j$ ridx $end
$upscope $end
$scope begin genblk1[1] $end
$var parameter 2 k$ ridx $end
$upscope $end
$scope begin genblk1[2] $end
$var parameter 3 l$ ridx $end
$upscope $end
$scope begin genblk1[3] $end
$var parameter 3 m$ ridx $end
$upscope $end
$upscope $end
$scope begin SA_MAIN $end
$upscope $end
$upscope $end
$upscope $end
$enddefinitions $end
$comment Show the parameter values. $end
$dumpall
b11 m$
b10 l$
b1 k$
b0 j$
b11 i$
b11 h$
b10 g$
b1 f$
b0 e$
b10 d$
b11 c$
b10 b$
b1 a$
b0 `$
b1 _$
b11 ^$
b10 ]$
b1 \$
b0 [$
b11 Z$
b10 Y$
b1 X$
b1000 S$
0R$
1Q$
b1111 H$
b1000 D$
0C$
1B$
b1110 9$
b1000 5$
04$
13$
b1101 *$
b1000 &$
0%$
1$$
b1100 y#
b1000 t#
0s#
1r#
b1011 i#
b1000 e#
0d#
1c#
b1010 Z#
b1000 V#
0U#
1T#
b1001 K#
b1000 G#
0F#
1E#
b1000 <#
b1000 7#
06#
15#
b111 ,#
b1000 (#
0'#
1&#
b110 {"
b1000 w"
0v"
1u"
b101 l"
b1000 h"
0g"
1f"
b100 ]"
b1000 X"
0W"
1V"
b11 M"
b1000 I"
0H"
1G"
b10 >"
b1000 :"
09"
18"
b1 /"
b1000 +"
0*"
1)"
b0 ~
b100000 |
b1 {
b11 x
b100000 v
b10 u
b10 r
b100000 p
b11 o
b1 l
b100000 j
b100 i
b0 f
b1000 d
b100 c
b11 `
b1000 ^
b11 ]
b10 Z
b1000 X
b10 W
b1 T
b1000 R
b1 Q
b0 N
b11 M
b10 L
b1 K
b0 J
b11 I
b10 H
b1 G
b0 F
b11 E
b10 D
b1 C
b11 B
b11 A
b10 @
b1 ?
b10 >
b11 =
b10 <
b1 ;
b1 :
b11 9
b10 8
b1 7
b0 6
b11 5
b10 4
b1 3
b0 2
b1000 0
0/
1.
b100 -
b100 ,
$end
#0
$dumpvars
bx W$
bx V$
xU$
bx T$
bx P$
xO$
bx N$
bx M$
bx L$
bx K$
xJ$
bx I$
bx G$
bx F$
bx E$
bx A$
bx @$
x?$
x>$
bx =$
bx <$
bx ;$
bx :$
bx 8$
bx 7$
bx 6$
bx 2$
bx 1$
x0$
x/$
bx .$
bx -$
bx ,$
bx +$
bx )$
bx ($
bx '$
bx #$
bx "$
x!$
x~#
bx }#
bx |#
bx {#
bx z#
bx x#
bx w#
xv#
bx u#
bx q#
xp#
bx o#
bx n#
bx m#
bx l#
xk#
bx j#
bx h#
bx g#
bx f#
bx b#
bx a#
x`#
x_#
bx ^#
bx ]#
bx \#
bx [#
bx Y#
bx X#
bx W#
bx S#
bx R#
xQ#
xP#
bx O#
bx N#
bx M#
bx L#
bx J#
bx I#
bx H#
bx D#
bx C#
xB#
xA#
bx @#
bx ?#
bx >#
bx =#
bx ;#
bx :#
x9#
bx 8#
bx 4#
x3#
bx 2#
bx 1#
bx 0#
bx /#
x.#
bx -#
bx +#
bx *#
bx )#
bx %#
bx $#
x##
x"#
bx !#
bx ~"
bx }"
bx |"
bx z"
bx y"
bx x"
bx t"
bx s"
xr"
xq"
bx p"
bx o"
bx n"
bx m"
bx k"
bx j"
bx i"
bx e"
bx d"
xc"
xb"
bx a"
bx `"
bx _"
bx ^"
bx \"
bx ["
xZ"
bx Y"
bx U"
xT"
bx S"
bx R"
bx Q"
bx P"
xO"
bx N"
bx L"
bx K"
bx J"
bx F"
bx E"
xD"
xC"
bx B"
bx A"
bx @"
bx ?"
bx ="
bx <"
bx ;"
bx 7"
bx 6"
x5"
x4"
bx 3"
bx 2"
bx 1"
bx 0"
bx ."
bx -"
bx ,"
bx ("
x'"
bx &"
bx %"
bx $"
bx #"
x""
bx !"
bx }
bx z
bx y
bx w
bx t
bx s
bx q
bx n
bx m
bx k
bx h
bx g
bx e
bx b
bx a
bx _
bx \
bx [
bx Y
bx V
bx U
bx S
bx P
bx O
bx 1
bx +
bx *
1)
x(
x'
x&
x%
0$
x#
x"
bx !
$end
#5000
b0 N$
b0 =$
b0 .$
b0 }#
b0 M$
b0 o#
b0 <$
b0 ^#
b0 -$
b0 O#
b0 |#
b0 @#
b0 n#
b0 2#
b0 ]#
b0 !#
b0 N#
b0 p"
b0 ?#
b0 a"
b0 1#
b0 Q"
b0 ~"
b0 @"
b0 o"
b0 1"
b0 `"
b0 $"
b0 !"
b0 P
b0 e"
b0 V
b0 D#
b0 \
b0 #$
b0 b
b0 g
b0 m
b0 s
b0 +
b0 y
b0 &"
b0 3"
b0 B"
b0 S"
b0 1
b0 z
b0 L$
b0 V$
b0 I$
b0 T$
b0 W$
b0 t
b0 ;$
b0 F$
b0 P$
b0 @$
b0 E$
b0 G$
b0 n
b0 ,$
b0 7$
b0 A$
b0 1$
b0 6$
b0 8$
b0 h
b0 {#
b0 ($
b0 2$
b0 "$
b0 '$
b0 )$
b0 K$
b0 m#
b0 w#
b0 j#
b0 u#
b0 x#
b0 :$
b0 \#
b0 g#
b0 q#
b0 a#
b0 f#
b0 h#
b0 +$
b0 M#
b0 X#
b0 b#
b0 R#
b0 W#
b0 Y#
b0 z#
b0 >#
b0 I#
b0 S#
b0 C#
b0 H#
b0 J#
b0 l#
b0 0#
b0 :#
b0 -#
b0 8#
b0 ;#
b0 [#
b0 }"
b0 *#
b0 4#
b0 $#
b0 )#
b0 +#
b0 L#
b0 n"
b0 y"
b0 %#
b0 s"
b0 x"
b0 z"
b0 =#
b0 _"
b0 j"
b0 t"
b0 d"
b0 i"
b0 k"
b0 /#
b0 P"
b0 ["
b0 N"
b0 Y"
b0 \"
b0 |"
b0 ?"
b0 K"
b0 U"
b0 E"
b0 J"
b0 L"
b0 m"
b0 0"
b0 <"
b0 F"
b0 6"
b0 ;"
b0 ="
b0 ^"
b0 #"
b0 -"
b0 7"
b0 ("
b0 ,"
b0 ."
b0 S
b0 Y
b0 _
b0 e
b0 k
b0 q
b0 w
b0 }
0)
1$
#10000
b100 R"
b11 A"
b10 2"
b1 %"
b100000000110000001000000001 *
0"
0(
0""
0#
0%
0'
0&
1)
0$
#15000
b100 \"
b11 L"
b10 ="
b1 ."
1$
#20000
b1 R"
b10 A"
b11 2"
b100 %"
0$
b1000000100000001100000100 *
#25000
b100 1#
b100 Q"
b11 ~"
b11 @"
b10 o"
b10 1"
b1 `"
b1 $"
b10000000001 \"
b1100000010 L"
b1000000011 ="
b100000100 ."
1$
#30000
b100 R"
b11 A"
b10 2"
b1 %"
0$
b100000000110000001000000001 *
#35000
b1 1#
b1 Q"
b10 ~"
b10 @"
b11 o"
b11 1"
b100 `"
b100 $"
b100 ;#
b11 +#
b10 z"
b1 k"
b100000100 \"
b1000000011 L"
b1100000010 ="
b10000000001 ."
1$
#40000
b1 R"
b10 A"
b11 2"
b100 %"
0$
b1000000100000001100000100 *
#45000
b100 n#
b100 2#
b11 ]#
b11 !#
b10 N#
b10 p"
b1 ?#
b1 a"
b100 1#
b100 Q"
b11 ~"
b11 @"
b10 o"
b10 1"
b1 `"
b1 $"
b10000000001 ;#
b1100000010 +#
b1000000011 z"
b100000100 k"
b10000000001 \"
b1100000010 L"
b1000000011 ="
b100000100 ."
1$
#50000
b100 a
b11 [
b10 U
b1 O
0$
b100000000110000001000000001 !
1"
1(
1""
1#
1%
1'
1&
#55000
1c"
15"
1'"
b100 e
b11 _
b10 Y
b1 S
1$
#60000
b1 a
b10 [
b11 U
b100 O
0$
b1000000100000001100000100 !
#65000
b1 !"
b1 P
1B#
1r"
1b"
1D"
14"
b100000100 S
b1000000011 Y
b1100000010 _
b10000000001 e
1$
#70000
b100 a
b11 [
b10 U
b1 O
0$
b100000000110000001000000001 !
#75000
b10 e"
b10 V
b100 !"
b100 P
1!$
1Q#
1A#
1##
1q"
1T"
1C"
b100 ^"
b100 #"
b100 -"
b1 7"
b1 ("
b1 ,"
b1000000000100000100 e
b110000001000000011 _
b100000001100000010 Y
b10000000001 S
1$
#80000
b1 a
b10 [
b11 U
b100 O
0$
b1000000100000001100000100 !
#85000
b1 !"
b1 P
b11 e"
b11 V
b11 D#
b11 \
10$
1~#
1`#
1P#
13#
1"#
b1100 =#
b1100 _"
b1100 j"
b10 t"
b10 d"
b10 i"
1O"
1Z"
b11 m"
b11 0"
b11 <"
b1 F"
b1 6"
b1 ;"
b10000 ^"
b10000 #"
b10000 -"
b100 7"
b100 ("
b100 ,"
b100000100 S
b110000001000000011 Y
b11000000100000001100000010 _
b100000000010000010000000001 e
1$
#90000
0$
