tb_systolic_array_ws.vcd
$date
	Tue Nov 22 06:26:21 2022
$end
$version
	Icarus Verilog
$end
$timescale
	1s
$end
$scope module tb_systolic_array_ws $end
$scope module sa $end
$var wire 32 ! a_in_vec [31:0] $end
$var wire 1 " act_fifo_enable $end
$var wire 1 # arr_enable $end
$var wire 1 $ clk $end
$var wire 1 % enable $end
$var wire 1 & mode $end
$var wire 1 ' pe_mode $end
$var wire 1 ( ps_fifo_enable $end
$var wire 1 ) reset_n $end
$var wire 32 * w_in_vec [31:0] $end
$var wire 128 + ps_out_vec [127:0] $end
$var parameter 32 , ARRHEIGHT $end
$var parameter 32 - ARRWIDTH $end
$var parameter 1 . MODE_PS $end
$var parameter 1 / MODE_WL $end
$var parameter 32 0 WORDWIDTH $end
$var reg 32 1 global_ps_in [31:0] $end
$scope begin genblk1[0] $end
$var parameter 2 2 w_in_idx $end
$upscope $end
$scope begin genblk1[1] $end
$var parameter 2 3 w_in_idx $end
$upscope $end
$scope begin genblk1[2] $end
$var parameter 3 4 w_in_idx $end
$upscope $end
$scope begin genblk1[3] $end
$var parameter 3 5 w_in_idx $end
$upscope $end
$scope begin genblk10[0] $end
$var parameter 2 6 cidx $end
$scope begin genblk1[1] $end
$var parameter 2 7 ridx $end
$upscope $end
$scope begin genblk1[2] $end
$var parameter 3 8 ridx $end
$upscope $end
$scope begin genblk1[3] $end
$var parameter 3 9 ridx $end
$upscope $end
$upscope $end
$scope begin genblk10[1] $end
$var parameter 2 : cidx $end
$scope begin genblk1[1] $end
$var parameter 2 ; ridx $end
$upscope $end
$scope begin genblk1[2] $end
$var parameter 3 < ridx $end
$upscope $end
$scope begin genblk1[3] $end
$var parameter 3 = ridx $end
$upscope $end
$upscope $end
$scope begin genblk10[2] $end
$var parameter 3 > cidx $end
$scope begin genblk1[1] $end
$var parameter 2 ? ridx $end
$upscope $end
$scope begin genblk1[2] $end
$var parameter 3 @ ridx $end
$upscope $end
$scope begin genblk1[3] $end
$var parameter 3 A ridx $end
$upscope $end
$upscope $end
$scope begin genblk10[3] $end
$var parameter 3 B cidx $end
$scope begin genblk1[1] $end
$var parameter 2 C ridx $end
$upscope $end
$scope begin genblk1[2] $end
$var parameter 3 D ridx $end
$upscope $end
$scope begin genblk1[3] $end
$var parameter 3 E ridx $end
$upscope $end
$upscope $end
$scope begin genblk2[0] $end
$var parameter 2 F a_in_idx $end
$upscope $end
$scope begin genblk2[1] $end
$var parameter 2 G a_in_idx $end
$upscope $end
$scope begin genblk2[2] $end
$var parameter 3 H a_in_idx $end
$upscope $end
$scope begin genblk2[3] $end
$var parameter 3 I a_in_idx $end
$upscope $end
$scope begin genblk3[0] $end
$var parameter 2 J ps_out_idx $end
$upscope $end
$scope begin genblk3[1] $end
$var parameter 2 K ps_out_idx $end
$upscope $end
$scope begin genblk3[2] $end
$var parameter 3 L ps_out_idx $end
$upscope $end
$scope begin genblk3[3] $end
$var parameter 3 M ps_out_idx $end
$upscope $end
$scope begin genblk4[0] $end
$var parameter 2 N act_fifo_idx $end
$upscope $end
$scope begin genblk4[1] $end
$var parameter 2 O act_fifo_idx $end
$upscope $end
$scope begin genblk4[2] $end
$var parameter 3 P act_fifo_idx $end
$upscope $end
$scope begin genblk4[3] $end
$var parameter 3 Q act_fifo_idx $end
$upscope $end
$scope begin genblk5[0] $end
$var parameter 2 R ps_fifo_idx $end
$upscope $end
$scope begin genblk5[1] $end
$var parameter 2 S ps_fifo_idx $end
$upscope $end
$scope begin genblk5[2] $end
$var parameter 3 T ps_fifo_idx $end
$upscope $end
$scope begin genblk5[3] $end
$var parameter 3 U ps_fifo_idx $end
$upscope $end
$scope begin genblk6[0] $end
$var parameter 2 V pe_idx $end
$scope module pe_arr $end
$var wire 8 W a_in [7:0] $end
$var wire 1 $ clk $end
$var wire 1 X enable_in $end
$var wire 1 ' mode $end
$var wire 32 Y ps_out [31:0] $end
$var wire 1 ) reset_n $end
$var wire 8 Z w_out [7:0] $end
$var wire 8 [ w_in [7:0] $end
$var wire 32 \ ps_in [31:0] $end
$var wire 1 ] enable_out $end
$var wire 8 ^ a_out [7:0] $end
$var parameter 1 _ MODE_PS $end
$var parameter 1 ` MODE_WL $end
$var parameter 32 a WORDWIDTH $end
$var reg 8 b activation [7:0] $end
$var reg 1 ] enable_out_reg $end
$var reg 32 c partial_sum [31:0] $end
$var reg 16 d weight [15:0] $end
$scope begin PSUM_CALC $end
$upscope $end
$upscope $end
$upscope $end
$scope begin genblk6[1] $end
$var parameter 2 e pe_idx $end
$scope module pe_arr $end
$var wire 1 $ clk $end
$var wire 1 ' mode $end
$var wire 32 f ps_out [31:0] $end
$var wire 1 ) reset_n $end
$var wire 8 g w_out [7:0] $end
$var wire 8 h w_in [7:0] $end
$var wire 32 i ps_in [31:0] $end
$var wire 1 j enable_out $end
$var wire 1 k enable_in $end
$var wire 8 l a_out [7:0] $end
$var wire 8 m a_in [7:0] $end
$var parameter 1 n MODE_PS $end
$var parameter 1 o MODE_WL $end
$var parameter 32 p WORDWIDTH $end
$var reg 8 q activation [7:0] $end
$var reg 1 j enable_out_reg $end
$var reg 32 r partial_sum [31:0] $end
$var reg 16 s weight [15:0] $end
$scope begin PSUM_CALC $end
$upscope $end
$upscope $end
$upscope $end
$scope begin genblk6[2] $end
$var parameter 3 t pe_idx $end
$scope module pe_arr $end
$var wire 1 $ clk $end
$var wire 1 ' mode $end
$var wire 32 u ps_out [31:0] $end
$var wire 1 ) reset_n $end
$var wire 8 v w_out [7:0] $end
$var wire 8 w w_in [7:0] $end
$var wire 32 x ps_in [31:0] $end
$var wire 1 y enable_out $end
$var wire 1 z enable_in $end
$var wire 8 { a_out [7:0] $end
$var wire 8 | a_in [7:0] $end
$var parameter 1 } MODE_PS $end
$var parameter 1 ~ MODE_WL $end
$var parameter 32 !" WORDWIDTH $end
$var reg 8 "" activation [7:0] $end
$var reg 1 y enable_out_reg $end
$var reg 32 #" partial_sum [31:0] $end
$var reg 16 $" weight [15:0] $end
$scope begin PSUM_CALC $end
$upscope $end
$upscope $end
$upscope $end
$scope begin genblk6[3] $end
$var parameter 3 %" pe_idx $end
$scope module pe_arr $end
$var wire 8 &" a_out [7:0] $end
$var wire 1 $ clk $end
$var wire 1 '" enable_out $end
$var wire 1 ' mode $end
$var wire 32 (" ps_out [31:0] $end
$var wire 1 ) reset_n $end
$var wire 8 )" w_out [7:0] $end
$var wire 8 *" w_in [7:0] $end
$var wire 32 +" ps_in [31:0] $end
$var wire 1 ," enable_in $end
$var wire 8 -" a_in [7:0] $end
$var parameter 1 ." MODE_PS $end
$var parameter 1 /" MODE_WL $end
$var parameter 32 0" WORDWIDTH $end
$var reg 8 1" activation [7:0] $end
$var reg 1 2" enable_out_reg $end
$var reg 32 3" partial_sum [31:0] $end
$var reg 16 4" weight [15:0] $end
$scope begin PSUM_CALC $end
$upscope $end
$upscope $end
$upscope $end
$scope begin genblk6[4] $end
$var parameter 4 5" pe_idx $end
$scope module pe_arr $end
$var wire 1 $ clk $end
$var wire 1 ' mode $end
$var wire 32 6" ps_in [31:0] $end
$var wire 32 7" ps_out [31:0] $end
$var wire 1 ) reset_n $end
$var wire 8 8" w_in [7:0] $end
$var wire 8 9" w_out [7:0] $end
$var wire 1 :" enable_out $end
$var wire 1 ;" enable_in $end
$var wire 8 <" a_out [7:0] $end
$var wire 8 =" a_in [7:0] $end
$var parameter 1 >" MODE_PS $end
$var parameter 1 ?" MODE_WL $end
$var parameter 32 @" WORDWIDTH $end
$var reg 8 A" activation [7:0] $end
$var reg 1 :" enable_out_reg $end
$var reg 32 B" partial_sum [31:0] $end
$var reg 16 C" weight [15:0] $end
$scope begin PSUM_CALC $end
$upscope $end
$upscope $end
$upscope $end
$scope begin genblk6[5] $end
$var parameter 4 D" pe_idx $end
$scope module pe_arr $end
$var wire 1 $ clk $end
$var wire 1 ' mode $end
$var wire 32 E" ps_in [31:0] $end
$var wire 32 F" ps_out [31:0] $end
$var wire 1 ) reset_n $end
$var wire 8 G" w_in [7:0] $end
$var wire 8 H" w_out [7:0] $end
$var wire 1 I" enable_out $end
$var wire 1 J" enable_in $end
$var wire 8 K" a_out [7:0] $end
$var wire 8 L" a_in [7:0] $end
$var parameter 1 M" MODE_PS $end
$var parameter 1 N" MODE_WL $end
$var parameter 32 O" WORDWIDTH $end
$var reg 8 P" activation [7:0] $end
$var reg 1 I" enable_out_reg $end
$var reg 32 Q" partial_sum [31:0] $end
$var reg 16 R" weight [15:0] $end
$scope begin PSUM_CALC $end
$upscope $end
$upscope $end
$upscope $end
$scope begin genblk6[6] $end
$var parameter 4 S" pe_idx $end
$scope module pe_arr $end
$var wire 1 $ clk $end
$var wire 1 ' mode $end
$var wire 32 T" ps_in [31:0] $end
$var wire 32 U" ps_out [31:0] $end
$var wire 1 ) reset_n $end
$var wire 8 V" w_in [7:0] $end
$var wire 8 W" w_out [7:0] $end
$var wire 1 X" enable_out $end
$var wire 1 Y" enable_in $end
$var wire 8 Z" a_out [7:0] $end
$var wire 8 [" a_in [7:0] $end
$var parameter 1 \" MODE_PS $end
$var parameter 1 ]" MODE_WL $end
$var parameter 32 ^" WORDWIDTH $end
$var reg 8 _" activation [7:0] $end
$var reg 1 X" enable_out_reg $end
$var reg 32 `" partial_sum [31:0] $end
$var reg 16 a" weight [15:0] $end
$scope begin PSUM_CALC $end
$upscope $end
$upscope $end
$upscope $end
$scope begin genblk6[7] $end
$var parameter 4 b" pe_idx $end
$scope module pe_arr $end
$var wire 8 c" a_out [7:0] $end
$var wire 1 $ clk $end
$var wire 1 d" enable_out $end
$var wire 1 ' mode $end
$var wire 32 e" ps_in [31:0] $end
$var wire 32 f" ps_out [31:0] $end
$var wire 1 ) reset_n $end
$var wire 8 g" w_in [7:0] $end
$var wire 8 h" w_out [7:0] $end
$var wire 1 i" enable_in $end
$var wire 8 j" a_in [7:0] $end
$var parameter 1 k" MODE_PS $end
$var parameter 1 l" MODE_WL $end
$var parameter 32 m" WORDWIDTH $end
$var reg 8 n" activation [7:0] $end
$var reg 1 o" enable_out_reg $end
$var reg 32 p" partial_sum [31:0] $end
$var reg 16 q" weight [15:0] $end
$scope begin PSUM_CALC $end
$upscope $end
$upscope $end
$upscope $end
$scope begin genblk6[8] $end
$var parameter 5 r" pe_idx $end
$scope module pe_arr $end
$var wire 1 $ clk $end
$var wire 1 ' mode $end
$var wire 32 s" ps_in [31:0] $end
$var wire 32 t" ps_out [31:0] $end
$var wire 1 ) reset_n $end
$var wire 8 u" w_in [7:0] $end
$var wire 8 v" w_out [7:0] $end
$var wire 1 w" enable_out $end
$var wire 1 x" enable_in $end
$var wire 8 y" a_out [7:0] $end
$var wire 8 z" a_in [7:0] $end
$var parameter 1 {" MODE_PS $end
$var parameter 1 |" MODE_WL $end
$var parameter 32 }" WORDWIDTH $end
$var reg 8 ~" activation [7:0] $end
$var reg 1 w" enable_out_reg $end
$var reg 32 !# partial_sum [31:0] $end
$var reg 16 "# weight [15:0] $end
$scope begin PSUM_CALC $end
$upscope $end
$upscope $end
$upscope $end
$scope begin genblk6[9] $end
$var parameter 5 ## pe_idx $end
$scope module pe_arr $end
$var wire 1 $ clk $end
$var wire 1 ' mode $end
$var wire 32 $# ps_in [31:0] $end
$var wire 32 %# ps_out [31:0] $end
$var wire 1 ) reset_n $end
$var wire 8 &# w_in [7:0] $end
$var wire 8 '# w_out [7:0] $end
$var wire 1 (# enable_out $end
$var wire 1 )# enable_in $end
$var wire 8 *# a_out [7:0] $end
$var wire 8 +# a_in [7:0] $end
$var parameter 1 ,# MODE_PS $end
$var parameter 1 -# MODE_WL $end
$var parameter 32 .# WORDWIDTH $end
$var reg 8 /# activation [7:0] $end
$var reg 1 (# enable_out_reg $end
$var reg 32 0# partial_sum [31:0] $end
$var reg 16 1# weight [15:0] $end
$scope begin PSUM_CALC $end
$upscope $end
$upscope $end
$upscope $end
$scope begin genblk6[10] $end
$var parameter 5 2# pe_idx $end
$scope module pe_arr $end
$var wire 1 $ clk $end
$var wire 1 ' mode $end
$var wire 32 3# ps_in [31:0] $end
$var wire 32 4# ps_out [31:0] $end
$var wire 1 ) reset_n $end
$var wire 8 5# w_in [7:0] $end
$var wire 8 6# w_out [7:0] $end
$var wire 1 7# enable_out $end
$var wire 1 8# enable_in $end
$var wire 8 9# a_out [7:0] $end
$var wire 8 :# a_in [7:0] $end
$var parameter 1 ;# MODE_PS $end
$var parameter 1 <# MODE_WL $end
$var parameter 32 =# WORDWIDTH $end
$var reg 8 ># activation [7:0] $end
$var reg 1 7# enable_out_reg $end
$var reg 32 ?# partial_sum [31:0] $end
$var reg 16 @# weight [15:0] $end
$scope begin PSUM_CALC $end
$upscope $end
$upscope $end
$upscope $end
$scope begin genblk6[11] $end
$var parameter 5 A# pe_idx $end
$scope module pe_arr $end
$var wire 8 B# a_out [7:0] $end
$var wire 1 $ clk $end
$var wire 1 C# enable_out $end
$var wire 1 ' mode $end
$var wire 32 D# ps_in [31:0] $end
$var wire 32 E# ps_out [31:0] $end
$var wire 1 ) reset_n $end
$var wire 8 F# w_in [7:0] $end
$var wire 8 G# w_out [7:0] $end
$var wire 1 H# enable_in $end
$var wire 8 I# a_in [7:0] $end
$var parameter 1 J# MODE_PS $end
$var parameter 1 K# MODE_WL $end
$var parameter 32 L# WORDWIDTH $end
$var reg 8 M# activation [7:0] $end
$var reg 1 N# enable_out_reg $end
$var reg 32 O# partial_sum [31:0] $end
$var reg 16 P# weight [15:0] $end
$scope begin PSUM_CALC $end
$upscope $end
$upscope $end
$upscope $end
$scope begin genblk6[12] $end
$var parameter 5 Q# pe_idx $end
$scope module pe_arr $end
$var wire 1 $ clk $end
$var wire 1 ' mode $end
$var wire 32 R# ps_in [31:0] $end
$var wire 32 S# ps_out [31:0] $end
$var wire 1 ) reset_n $end
$var wire 8 T# w_in [7:0] $end
$var wire 8 U# w_out [7:0] $end
$var wire 1 V# enable_out $end
$var wire 1 W# enable_in $end
$var wire 8 X# a_out [7:0] $end
$var wire 8 Y# a_in [7:0] $end
$var parameter 1 Z# MODE_PS $end
$var parameter 1 [# MODE_WL $end
$var parameter 32 \# WORDWIDTH $end
$var reg 8 ]# activation [7:0] $end
$var reg 1 V# enable_out_reg $end
$var reg 32 ^# partial_sum [31:0] $end
$var reg 16 _# weight [15:0] $end
$scope begin PSUM_CALC $end
$upscope $end
$upscope $end
$upscope $end
$scope begin genblk6[13] $end
$var parameter 5 `# pe_idx $end
$scope module pe_arr $end
$var wire 1 $ clk $end
$var wire 1 ' mode $end
$var wire 32 a# ps_in [31:0] $end
$var wire 32 b# ps_out [31:0] $end
$var wire 1 ) reset_n $end
$var wire 8 c# w_in [7:0] $end
$var wire 8 d# w_out [7:0] $end
$var wire 1 e# enable_out $end
$var wire 1 f# enable_in $end
$var wire 8 g# a_out [7:0] $end
$var wire 8 h# a_in [7:0] $end
$var parameter 1 i# MODE_PS $end
$var parameter 1 j# MODE_WL $end
$var parameter 32 k# WORDWIDTH $end
$var reg 8 l# activation [7:0] $end
$var reg 1 e# enable_out_reg $end
$var reg 32 m# partial_sum [31:0] $end
$var reg 16 n# weight [15:0] $end
$scope begin PSUM_CALC $end
$upscope $end
$upscope $end
$upscope $end
$scope begin genblk6[14] $end
$var parameter 5 o# pe_idx $end
$scope module pe_arr $end
$var wire 1 $ clk $end
$var wire 1 ' mode $end
$var wire 32 p# ps_in [31:0] $end
$var wire 32 q# ps_out [31:0] $end
$var wire 1 ) reset_n $end
$var wire 8 r# w_in [7:0] $end
$var wire 8 s# w_out [7:0] $end
$var wire 1 t# enable_out $end
$var wire 1 u# enable_in $end
$var wire 8 v# a_out [7:0] $end
$var wire 8 w# a_in [7:0] $end
$var parameter 1 x# MODE_PS $end
$var parameter 1 y# MODE_WL $end
$var parameter 32 z# WORDWIDTH $end
$var reg 8 {# activation [7:0] $end
$var reg 1 t# enable_out_reg $end
$var reg 32 |# partial_sum [31:0] $end
$var reg 16 }# weight [15:0] $end
$scope begin PSUM_CALC $end
$upscope $end
$upscope $end
$upscope $end
$scope begin genblk6[15] $end
$var parameter 5 ~# pe_idx $end
$scope module pe_arr $end
$var wire 8 !$ a_out [7:0] $end
$var wire 1 $ clk $end
$var wire 1 "$ enable_out $end
$var wire 1 ' mode $end
$var wire 32 #$ ps_in [31:0] $end
$var wire 32 $$ ps_out [31:0] $end
$var wire 1 ) reset_n $end
$var wire 8 %$ w_in [7:0] $end
$var wire 8 &$ w_out [7:0] $end
$var wire 1 '$ enable_in $end
$var wire 8 ($ a_in [7:0] $end
$var parameter 1 )$ MODE_PS $end
$var parameter 1 *$ MODE_WL $end
$var parameter 32 +$ WORDWIDTH $end
$var reg 8 ,$ activation [7:0] $end
$var reg 1 -$ enable_out_reg $end
$var reg 32 .$ partial_sum [31:0] $end
$var reg 16 /$ weight [15:0] $end
$scope begin PSUM_CALC $end
$upscope $end
$upscope $end
$upscope $end
$scope begin genblk7[1] $end
$var parameter 2 0$ ridx $end
$upscope $end
$scope begin genblk7[2] $end
$var parameter 3 1$ ridx $end
$upscope $end
$scope begin genblk7[3] $end
$var parameter 3 2$ ridx $end
$upscope $end
$scope begin genblk8[0] $end
$var parameter 2 3$ cidx $end
$upscope $end
$scope begin genblk8[1] $end
$var parameter 2 4$ cidx $end
$upscope $end
$scope begin genblk8[2] $end
$var parameter 3 5$ cidx $end
$upscope $end
$scope begin genblk8[3] $end
$var parameter 3 6$ cidx $end
$upscope $end
$scope begin genblk9[1] $end
$var parameter 2 7$ cidx $end
$scope begin genblk1[0] $end
$var parameter 2 8$ ridx $end
$upscope $end
$scope begin genblk1[1] $end
$var parameter 2 9$ ridx $end
$upscope $end
$scope begin genblk1[2] $end
$var parameter 3 :$ ridx $end
$upscope $end
$scope begin genblk1[3] $end
$var parameter 3 ;$ ridx $end
$upscope $end
$upscope $end
$scope begin genblk9[2] $end
$var parameter 3 <$ cidx $end
$scope begin genblk1[0] $end
$var parameter 2 =$ ridx $end
$upscope $end
$scope begin genblk1[1] $end
$var parameter 2 >$ ridx $end
$upscope $end
$scope begin genblk1[2] $end
$var parameter 3 ?$ ridx $end
$upscope $end
$scope begin genblk1[3] $end
$var parameter 3 @$ ridx $end
$upscope $end
$upscope $end
$scope begin genblk9[3] $end
$var parameter 3 A$ cidx $end
$scope begin genblk1[0] $end
$var parameter 2 B$ ridx $end
$upscope $end
$scope begin genblk1[1] $end
$var parameter 2 C$ ridx $end
$upscope $end
$scope begin genblk1[2] $end
$var parameter 3 D$ ridx $end
$upscope $end
$scope begin genblk1[3] $end
$var parameter 3 E$ ridx $end
$upscope $end
$upscope $end
$scope begin SA_MAIN $end
$upscope $end
$upscope $end
$upscope $end
$enddefinitions $end
$comment Show the parameter values. $end
$dumpall
b11 E$
b10 D$
b1 C$
b0 B$
b11 A$
b11 @$
b10 ?$
b1 >$
b0 =$
b10 <$
b11 ;$
b10 :$
b1 9$
b0 8$
b1 7$
b11 6$
b10 5$
b1 4$
b0 3$
b11 2$
b10 1$
b1 0$
b1000 +$
0*$
1)$
b1111 ~#
b1000 z#
0y#
1x#
b1110 o#
b1000 k#
0j#
1i#
b1101 `#
b1000 \#
0[#
1Z#
b1100 Q#
b1000 L#
0K#
1J#
b1011 A#
b1000 =#
0<#
1;#
b1010 2#
b1000 .#
0-#
1,#
b1001 ##
b1000 }"
0|"
1{"
b1000 r"
b1000 m"
0l"
1k"
b111 b"
b1000 ^"
0]"
1\"
b110 S"
b1000 O"
0N"
1M"
b101 D"
b1000 @"
0?"
1>"
b100 5"
b1000 0"
0/"
1."
b11 %"
b1000 !"
0~
1}
b10 t
b1000 p
0o
1n
b1 e
b1000 a
0`
1_
b0 V
b11 U
b10 T
b1 S
b0 R
b11 Q
b10 P
b1 O
b0 N
b11 M
b10 L
b1 K
b0 J
b11 I
b10 H
b1 G
b0 F
b11 E
b10 D
b1 C
b11 B
b11 A
b10 @
b1 ?
b10 >
b11 =
b10 <
b1 ;
b1 :
b11 9
b10 8
b1 7
b0 6
b11 5
b10 4
b1 3
b0 2
b1000 0
0/
1.
b100 -
b100 ,
$end
#0
$dumpvars
bx /$
bx .$
x-$
bx ,$
bx ($
x'$
bx &$
bx %$
bx $$
bx #$
x"$
bx !$
bx }#
bx |#
bx {#
bx w#
bx v#
xu#
xt#
bx s#
bx r#
bx q#
bx p#
bx n#
bx m#
bx l#
bx h#
bx g#
xf#
xe#
bx d#
bx c#
bx b#
bx a#
bx _#
bx ^#
bx ]#
bx Y#
bx X#
xW#
xV#
bx U#
bx T#
bx S#
bx R#
bx P#
bx O#
xN#
bx M#
bx I#
xH#
bx G#
bx F#
bx E#
bx D#
xC#
bx B#
bx @#
bx ?#
bx >#
bx :#
bx 9#
x8#
x7#
bx 6#
bx 5#
bx 4#
bx 3#
bx 1#
bx 0#
bx /#
bx +#
bx *#
x)#
x(#
bx '#
bx &#
bx %#
bx $#
bx "#
bx !#
bx ~"
bx z"
bx y"
xx"
xw"
bx v"
bx u"
bx t"
bx s"
bx q"
bx p"
xo"
bx n"
bx j"
xi"
bx h"
bx g"
bx f"
bx e"
xd"
bx c"
bx a"
bx `"
bx _"
bx ["
bx Z"
xY"
xX"
bx W"
bx V"
bx U"
bx T"
bx R"
bx Q"
bx P"
bx L"
bx K"
xJ"
xI"
bx H"
bx G"
bx F"
bx E"
bx C"
bx B"
bx A"
bx ="
bx <"
x;"
x:"
bx 9"
bx 8"
bx 7"
bx 6"
bx 4"
bx 3"
x2"
bx 1"
bx -"
x,"
bx +"
bx *"
bx )"
bx ("
x'"
bx &"
bx $"
bx #"
bx ""
bx |
bx {
xz
xy
bx x
bx w
bx v
bx u
bx s
bx r
bx q
bx m
bx l
xk
xj
bx i
bx h
bx g
bx f
bx d
bx c
bx b
bx ^
x]
bx \
bx [
bx Z
bx Y
xX
bx W
bx 1
bx +
bx *
1)
x(
x'
x&
x%
0$
x#
x"
bx !
$end
#5000
b0 &$
b0 s#
b0 d#
b0 U#
b0 %$
b0 G#
b0 r#
b0 6#
b0 c#
b0 '#
b0 T#
b0 v"
b0 F#
b0 h"
b0 5#
b0 W"
b0 &#
b0 H"
b0 u"
b0 9"
b0 g"
b0 )"
b0 V"
b0 v
b0 G"
b0 g
b0 8"
b0 Z
b0 \
b0 i
b0 x
b0 +"
b0 1
0"$
0-$
b0 $$
b0 .$
b0 !$
b0 ,$
b0 /$
0'$
0t#
b0 q#
b0 |#
b0 ($
b0 v#
b0 {#
b0 }#
0u#
0e#
b0 b#
b0 m#
b0 w#
b0 g#
b0 l#
b0 n#
0f#
0V#
b0 +
b0 S#
b0 ^#
b0 h#
b0 X#
b0 ]#
b0 _#
0C#
0N#
b0 #$
b0 E#
b0 O#
b0 B#
b0 M#
b0 P#
0H#
07#
b0 p#
b0 4#
b0 ?#
b0 I#
b0 9#
b0 >#
b0 @#
08#
0(#
b0 a#
b0 %#
b0 0#
b0 :#
b0 *#
b0 /#
b0 1#
0W#
0)#
0w"
b0 R#
b0 t"
b0 !#
b0 +#
b0 y"
b0 ~"
b0 "#
0d"
0o"
b0 D#
b0 f"
b0 p"
b0 c"
b0 n"
b0 q"
0i"
0X"
b0 3#
b0 U"
b0 `"
b0 j"
b0 Z"
b0 _"
b0 a"
0Y"
0I"
b0 $#
b0 F"
b0 Q"
b0 ["
b0 K"
b0 P"
b0 R"
0x"
0J"
0:"
b0 s"
b0 7"
b0 B"
b0 L"
b0 <"
b0 A"
b0 C"
0'"
02"
b0 e"
b0 ("
b0 3"
b0 &"
b0 1"
b0 4"
0,"
0y
b0 T"
b0 u
b0 #"
b0 -"
b0 {
b0 ""
b0 $"
0z
0j
b0 E"
b0 f
b0 r
b0 |
b0 l
b0 q
b0 s
0;"
0k
0]
b0 6"
b0 Y
b0 c
b0 m
b0 ^
b0 b
b0 d
0)
1$
#10000
b100 *"
b11 w
b10 h
b1 [
b100000000110000001000000001 *
0"
0(
0X
0#
0%
0'
0&
1)
0$
#15000
b100 4"
b11 $"
b10 s
b1 d
1$
#20000
b1 *"
b10 w
b11 h
b100 [
0$
b1000000100000001100000100 *
#25000
b100 g"
b100 )"
b11 V"
b11 v
b10 G"
b10 g
b1 8"
b1 Z
b10000000001 4"
b1100000010 $"
b1000000011 s
b100000100 d
1$
#30000
b100 *"
b11 w
b10 h
b1 [
0$
b100000000110000001000000001 *
#35000
b1 g"
b1 )"
b10 V"
b10 v
b11 G"
b11 g
b100 8"
b100 Z
b100 q"
b11 a"
b10 R"
b1 C"
b100000100 4"
b1000000011 $"
b1100000010 s
b10000000001 d
1$
#40000
b1 *"
b10 w
b11 h
b100 [
0$
b1000000100000001100000100 *
#45000
b100 F#
b100 h"
b11 5#
b11 W"
b10 &#
b10 H"
b1 u"
b1 9"
b100 g"
b100 )"
b11 V"
b11 v
b10 G"
b10 g
b1 8"
b1 Z
b10000000001 q"
b1100000010 a"
b1000000011 R"
b100000100 C"
b10000000001 4"
b1100000010 $"
b1000000011 s
b100000100 d
1$
#50000
b100 Y#
b11 z"
b10 ="
b1 W
0$
b100000000110000001000000001 !
1"
1(
1X
1#
1%
1'
1&
#55000
1;"
1k
1]
b100 6"
b100 Y
b100 c
b1 m
b1 ^
b1 b
1$
#60000
b1 Y#
b10 z"
b11 ="
b100 W
0$
b1000000100000001100000100 !
#65000
1x"
1J"
1:"
b10000 s"
b10000 7"
b10000 B"
b11 L"
b11 <"
b11 A"
1z
1j
b11 E"
b11 f
b11 r
b1 |
b1 l
b1 q
b10000 6"
b10000 Y
b10000 c
b100 m
b100 ^
b100 b
1$
#70000
b100 Y#
b11 z"
b10 ="
b1 W
0$
b100000000110000001000000001 !
#75000
1W#
1)#
1w"
b10000 R#
b10000 t"
b10000 !#
b11 +#
b11 y"
b11 ~"
1Y"
1I"
b1100 $#
b1100 F"
b1100 Q"
b11 ["
b11 K"
b11 P"
b11000 s"
b11000 7"
b11000 B"
b10 L"
b10 <"
b10 A"
1,"
1y
b10 T"
b10 u
b10 #"
b1 -"
b1 {
b1 ""
b1100 E"
b1100 f
b1100 r
b100 |
b100 l
b100 q
b100 6"
b100 Y
b100 c
b1 m
b1 ^
b1 b
1$
#80000
b1 Y#
b10 z"
b11 ="
b100 W
0$
b1000000100000001100000100 !
#85000
1f#
1V#
b10000 +
b10000 S#
b10000 ^#
b1 h#
b1 X#
b1 ]#
18#
1(#
b1100 a#
b1100 %#
b1100 0#
b11 :#
b11 *#
b11 /#
b11000 R#
b11000 t"
b11000 !#
b10 +#
b10 y"
b10 ~"
1i"
1X"
b1000 3#
b1000 U"
b1000 `"
b11 j"
b11 Z"
b11 _"
b10010 $#
b10010 F"
b10010 Q"
b10 ["
b10 K"
b10 P"
b10000 s"
b10000 7"
b10000 B"
b11 L"
b11 <"
b11 A"
1'"
12"
b1 e"
b1 ("
b1 3"
b1 &"
b1 1"
b1000 T"
b1000 u
b1000 #"
b100 -"
b100 {
b100 ""
b11 E"
b11 f
b11 r
b1 |
b1 l
b1 q
b10000 6"
b10000 Y
b10000 c
b100 m
b100 ^
b100 b
1$
#90000
0$
#95000
1u#
1e#
b1100 b#
b1100 m#
b1 w#
b1 g#
b1 l#
b110000000000000000000000000000011000 +
b11000 S#
b11000 ^#
1H#
17#
b1000 p#
b1000 4#
b1000 ?#
b11 I#
b11 9#
b11 >#
b10010 a#
b10010 %#
b10010 0#
b10 :#
b10 *#
b10 /#
b10000 R#
b10000 t"
b10000 !#
1d"
1o"
b100 D#
b100 f"
b100 p"
b11 c"
b11 n"
b1100 3#
b1100 U"
b1100 `"
b10 j"
b10 Z"
b10 _"
b1100 $#
b1100 F"
b1100 Q"
b11 ["
b11 K"
b11 P"
b11100 s"
b11100 7"
b11100 B"
b100 e"
b100 ("
b100 3"
b100 &"
b100 1"
b10 T"
b10 u
b10 #"
b1 -"
b1 {
b1 ""
b1100 E"
b1100 f
b1100 r
b100 |
b100 l
b100 q
1$
#100000
0$
#105000
1'$
1t#
b1000 q#
b1000 |#
b1 ($
b1 v#
b1 {#
b10010 b#
b10010 m#
b10000000000000000000000000000001001000000000000000000000000000010000 +
b10000 S#
b10000 ^#
1C#
1N#
b100 #$
b100 E#
b100 O#
b11 B#
b11 M#
b1100 p#
b1100 4#
b1100 ?#
b10 I#
b10 9#
b10 >#
b1100 a#
b1100 %#
b1100 0#
b11100 R#
b11100 t"
b11100 !#
b110 D#
b110 f"
b110 p"
b10 c"
b10 n"
b1000 3#
b1000 U"
b1000 `"
b11 j"
b11 Z"
b11 _"
b10101 $#
b10101 F"
b10101 Q"
b1 e"
b1 ("
b1 3"
b1 &"
b1 1"
b1000 T"
b1000 u
b1000 #"
b100 -"
b100 {
b100 ""
1$
#110000
0$
#115000
1"$
1-$
b100 $$
b100 .$
b1 !$
b1 ,$
b1100 q#
b1100 |#
b1100 b#
b1100 m#
b100000000000000000000000000000011000000000000000000000000000000110000000000000000000000000000011100 +
b11100 S#
b11100 ^#
b110 #$
b110 E#
b110 O#
b10 B#
b10 M#
b1000 p#
b1000 4#
b1000 ?#
b10101 a#
b10101 %#
b10101 0#
b100 D#
b100 f"
b100 p"
b11 c"
b11 n"
b1110 3#
b1110 U"
b1110 `"
b100 e"
b100 ("
b100 3"
b100 &"
b100 1"
1$
#120000
0$
#125000
b110 $$
b110 .$
b1000 q#
b1000 |#
b110000000000000000000000000000010000000000000000000000000000001010100000000000000000000000000011100 +
b10101 b#
b10101 m#
b100 #$
b100 E#
b100 O#
b1110 p#
b1110 4#
b1110 ?#
b111 D#
b111 f"
b111 p"
1$
#130000
0$
#135000
b100 $$
b100 .$
b100000000000000000000000000000011100000000000000000000000000001010100000000000000000000000000011100 +
b1110 q#
b1110 |#
b111 #$
b111 E#
b111 O#
1$
#140000
0$
